G04 Layer_Physical_Order=1*
G04 Layer_Color=25308*
%FSLAX25Y25*%
%MOIN*%
G70*
G01*
G75*
%ADD10R,0.03543X0.06102*%
G04:AMPARAMS|DCode=11|XSize=39.37mil|YSize=39.37mil|CornerRadius=4.92mil|HoleSize=0mil|Usage=FLASHONLY|Rotation=180.000|XOffset=0mil|YOffset=0mil|HoleType=Round|Shape=RoundedRectangle|*
%AMROUNDEDRECTD11*
21,1,0.03937,0.02953,0,0,180.0*
21,1,0.02953,0.03937,0,0,180.0*
1,1,0.00984,-0.01476,0.01476*
1,1,0.00984,0.01476,0.01476*
1,1,0.00984,0.01476,-0.01476*
1,1,0.00984,-0.01476,-0.01476*
%
%ADD11ROUNDEDRECTD11*%
%ADD12R,0.03150X0.01969*%
%ADD13C,0.03937*%
%ADD14C,0.01181*%
%ADD15C,0.02953*%
%ADD16C,0.01000*%
%ADD17R,0.86614X0.59055*%
%ADD18C,0.10000*%
%ADD19R,0.10000X0.10000*%
%ADD20C,0.08661*%
%ADD21C,0.20945*%
%ADD22C,0.06000*%
%ADD23R,0.11811X0.11811*%
%ADD24C,0.11811*%
%ADD25R,0.07000X0.07000*%
%ADD26C,0.07000*%
%ADD27C,0.05000*%
G36*
X300787Y317131D02*
X300334Y316895D01*
X300287Y316898D01*
X298871Y318556D01*
X297201Y319982D01*
X295329Y321129D01*
X293300Y321970D01*
X291165Y322482D01*
X288976Y322655D01*
X286787Y322482D01*
X284652Y321970D01*
X282624Y321129D01*
X280751Y319982D01*
X279082Y318556D01*
X277656Y316886D01*
X276508Y315014D01*
X275668Y312986D01*
X275156Y310851D01*
X274983Y308662D01*
X275156Y306472D01*
X275668Y304337D01*
X276508Y302309D01*
X277656Y300437D01*
X279082Y298767D01*
X280740Y297351D01*
X280743Y297304D01*
X280507Y296850D01*
X128155D01*
X127919Y297304D01*
X127921Y297351D01*
X129580Y298767D01*
X131006Y300437D01*
X132153Y302309D01*
X132993Y304337D01*
X133506Y306472D01*
X133678Y308662D01*
X133506Y310851D01*
X132993Y312986D01*
X132153Y315014D01*
X131006Y316886D01*
X129580Y318556D01*
X127910Y319982D01*
X126038Y321129D01*
X124009Y321970D01*
X123526Y322086D01*
X123289Y322657D01*
X123582Y323365D01*
X123720Y324410D01*
X123582Y325454D01*
X123179Y326427D01*
X122538Y327262D01*
X121702Y327904D01*
X120729Y328307D01*
X119685Y328444D01*
X118641Y328307D01*
X117668Y327904D01*
X116832Y327262D01*
X116191Y326427D01*
X115788Y325454D01*
X115650Y324410D01*
X115788Y323365D01*
X116081Y322657D01*
X115844Y322086D01*
X115361Y321970D01*
X113332Y321129D01*
X111460Y319982D01*
X109790Y318556D01*
X108374Y316898D01*
X108328Y316895D01*
X107874Y317131D01*
Y493701D01*
X300787D01*
Y317131D01*
D02*
G37*
%LPC*%
G36*
X174776Y374067D02*
X170803D01*
X170891Y373392D01*
X171345Y372298D01*
X172066Y371357D01*
X173006Y370636D01*
X174101Y370183D01*
X174776Y370094D01*
Y374067D01*
D02*
G37*
G36*
X115276Y379106D02*
X114101Y378951D01*
X113006Y378498D01*
X112066Y377776D01*
X111345Y376836D01*
X110891Y375742D01*
X110737Y374567D01*
X110891Y373392D01*
X111345Y372298D01*
X112066Y371357D01*
X113006Y370636D01*
X114101Y370183D01*
X115276Y370028D01*
X116131Y370141D01*
X117012Y369260D01*
X116729Y368836D01*
X116450Y368951D01*
X115276Y369106D01*
X114101Y368951D01*
X113006Y368498D01*
X112066Y367776D01*
X111345Y366836D01*
X110891Y365742D01*
X110737Y364567D01*
X110891Y363392D01*
X111345Y362298D01*
X112066Y361357D01*
X113006Y360636D01*
X114101Y360183D01*
X115276Y360028D01*
X116450Y360183D01*
X117545Y360636D01*
X118485Y361357D01*
X119206Y362298D01*
X119660Y363392D01*
X119814Y364567D01*
X119660Y365742D01*
X119544Y366020D01*
X119968Y366304D01*
X128971Y357301D01*
Y328350D01*
X128641Y328307D01*
X127668Y327904D01*
X126832Y327262D01*
X126191Y326427D01*
X125788Y325454D01*
X125651Y324410D01*
X125788Y323365D01*
X126191Y322392D01*
X126832Y321557D01*
X127668Y320916D01*
X128641Y320512D01*
X129685Y320375D01*
X130095Y320429D01*
X135774Y314750D01*
X136183Y314476D01*
X136593Y314203D01*
X137559Y314011D01*
X181575D01*
X181643Y313847D01*
X182497Y312734D01*
X183611Y311879D01*
X184908Y311342D01*
X186299Y311159D01*
X187691Y311342D01*
X188988Y311879D01*
X190101Y312734D01*
X190956Y313847D01*
X191493Y315144D01*
X191676Y316535D01*
X191493Y317927D01*
X190956Y319224D01*
X190101Y320337D01*
X188988Y321192D01*
X187691Y321729D01*
X186299Y321912D01*
X184908Y321729D01*
X183611Y321192D01*
X182497Y320337D01*
X181643Y319224D01*
X181575Y319060D01*
X138605D01*
X133666Y324000D01*
X133720Y324410D01*
X133645Y324979D01*
X133829Y325254D01*
X134021Y326220D01*
Y358347D01*
X133829Y359313D01*
X133555Y359722D01*
X133281Y360132D01*
X119702Y373711D01*
X119814Y374567D01*
X119660Y375742D01*
X119206Y376836D01*
X118485Y377776D01*
X117545Y378498D01*
X116450Y378951D01*
X115276Y379106D01*
D02*
G37*
G36*
X179749Y374067D02*
X175776D01*
Y370094D01*
X176450Y370183D01*
X177545Y370636D01*
X178485Y371357D01*
X179206Y372298D01*
X179660Y373392D01*
X179749Y374067D01*
D02*
G37*
G36*
X202551Y372590D02*
X200476D01*
Y371106D01*
X202551D01*
Y372590D01*
D02*
G37*
G36*
X205626D02*
X203551D01*
Y371106D01*
X205626D01*
Y372590D01*
D02*
G37*
G36*
X202083Y370193D02*
X196539D01*
Y362091D01*
X202083D01*
Y364884D01*
X202249Y364995D01*
X203360Y366106D01*
X205626D01*
Y370075D01*
X202083D01*
Y370193D01*
D02*
G37*
G36*
X115776Y359040D02*
Y355067D01*
X119749D01*
X119660Y355742D01*
X119206Y356836D01*
X118485Y357776D01*
X117545Y358498D01*
X116450Y358951D01*
X115776Y359040D01*
D02*
G37*
G36*
X114776D02*
X114101Y358951D01*
X113006Y358498D01*
X112066Y357776D01*
X111345Y356836D01*
X110891Y355742D01*
X110803Y355067D01*
X114776D01*
Y359040D01*
D02*
G37*
G36*
X198811Y360350D02*
X196539D01*
Y356799D01*
X198811D01*
Y360350D01*
D02*
G37*
G36*
X175276Y369106D02*
X174101Y368951D01*
X173006Y368498D01*
X172066Y367776D01*
X171345Y366836D01*
X170891Y365742D01*
X170737Y364567D01*
X170891Y363392D01*
X171345Y362298D01*
X172066Y361357D01*
X173006Y360636D01*
X174101Y360183D01*
X175276Y360028D01*
X176450Y360183D01*
X177545Y360636D01*
X178485Y361357D01*
X179206Y362298D01*
X179660Y363392D01*
X179814Y364567D01*
X179660Y365742D01*
X179206Y366836D01*
X178485Y367776D01*
X177545Y368498D01*
X176450Y368951D01*
X175276Y369106D01*
D02*
G37*
G36*
X202083Y360350D02*
X199811D01*
Y356799D01*
X202083D01*
Y360350D01*
D02*
G37*
G36*
X205626Y380075D02*
X203551D01*
Y378590D01*
X205626D01*
Y380075D01*
D02*
G37*
G36*
X202551D02*
X200476D01*
Y378590D01*
X202551D01*
Y380075D01*
D02*
G37*
G36*
X115276Y389106D02*
X114101Y388951D01*
X113006Y388498D01*
X112066Y387776D01*
X111345Y386836D01*
X110891Y385742D01*
X110737Y384567D01*
X110891Y383392D01*
X111345Y382297D01*
X112066Y381358D01*
X113006Y380636D01*
X114101Y380183D01*
X115276Y380028D01*
X116450Y380183D01*
X117545Y380636D01*
X118485Y381358D01*
X119206Y382297D01*
X119660Y383392D01*
X119814Y384567D01*
X119660Y385742D01*
X119206Y386836D01*
X118485Y387776D01*
X117545Y388498D01*
X116450Y388951D01*
X115276Y389106D01*
D02*
G37*
G36*
X205626Y382591D02*
X203551D01*
Y381106D01*
X205626D01*
Y382591D01*
D02*
G37*
G36*
X202551D02*
X200476D01*
Y381106D01*
X202551D01*
Y382591D01*
D02*
G37*
G36*
X205626Y377590D02*
X203551D01*
Y376106D01*
X205626D01*
Y377590D01*
D02*
G37*
G36*
Y375075D02*
X203551D01*
Y373590D01*
X205626D01*
Y375075D01*
D02*
G37*
G36*
X202551D02*
X200476D01*
Y373590D01*
X202551D01*
Y375075D01*
D02*
G37*
G36*
X174776Y379040D02*
X174101Y378951D01*
X173006Y378498D01*
X172066Y377776D01*
X171345Y376836D01*
X170891Y375742D01*
X170803Y375067D01*
X174776D01*
Y379040D01*
D02*
G37*
G36*
X202551Y377590D02*
X200476D01*
Y376106D01*
X202551D01*
Y377590D01*
D02*
G37*
G36*
X175776Y379040D02*
Y375067D01*
X179749D01*
X179660Y375742D01*
X179206Y376836D01*
X178485Y377776D01*
X177545Y378498D01*
X176450Y378951D01*
X175776Y379040D01*
D02*
G37*
G36*
X202083Y355799D02*
X199811D01*
Y352248D01*
X202083D01*
Y355799D01*
D02*
G37*
G36*
X139185Y323909D02*
X135716D01*
X135788Y323365D01*
X136191Y322392D01*
X136832Y321557D01*
X137668Y320916D01*
X138641Y320512D01*
X139185Y320441D01*
Y323909D01*
D02*
G37*
G36*
X169685Y328444D02*
X168641Y328307D01*
X167668Y327904D01*
X166832Y327262D01*
X166191Y326427D01*
X165788Y325454D01*
X165650Y324410D01*
X165788Y323365D01*
X166191Y322392D01*
X166832Y321557D01*
X167668Y320916D01*
X168641Y320512D01*
X169685Y320375D01*
X170729Y320512D01*
X171702Y320916D01*
X172538Y321557D01*
X173179Y322392D01*
X173582Y323365D01*
X173720Y324410D01*
X173582Y325454D01*
X173179Y326427D01*
X172538Y327262D01*
X171702Y327904D01*
X170729Y328307D01*
X169685Y328444D01*
D02*
G37*
G36*
X143654Y323909D02*
X140185D01*
Y320441D01*
X140729Y320512D01*
X141702Y320916D01*
X142538Y321557D01*
X143179Y322392D01*
X143582Y323365D01*
X143654Y323909D01*
D02*
G37*
G36*
X140185Y328378D02*
Y324909D01*
X143654D01*
X143582Y325454D01*
X143179Y326427D01*
X142538Y327262D01*
X141702Y327904D01*
X140729Y328307D01*
X140185Y328378D01*
D02*
G37*
G36*
X139185D02*
X138641Y328307D01*
X137668Y327904D01*
X136832Y327262D01*
X136191Y326427D01*
X135788Y325454D01*
X135716Y324909D01*
X139185D01*
Y328378D01*
D02*
G37*
G36*
X159685Y328444D02*
X158641Y328307D01*
X157668Y327904D01*
X156832Y327262D01*
X156191Y326427D01*
X155788Y325454D01*
X155650Y324410D01*
X155788Y323365D01*
X156191Y322392D01*
X156832Y321557D01*
X157668Y320916D01*
X158641Y320512D01*
X159685Y320375D01*
X160729Y320512D01*
X161702Y320916D01*
X162538Y321557D01*
X163179Y322392D01*
X163582Y323365D01*
X163719Y324410D01*
X163582Y325454D01*
X163179Y326427D01*
X162538Y327262D01*
X161702Y327904D01*
X160729Y328307D01*
X159685Y328444D01*
D02*
G37*
G36*
X211610Y316035D02*
X206799D01*
Y311225D01*
X207691Y311342D01*
X208988Y311879D01*
X210101Y312734D01*
X210956Y313847D01*
X211493Y315144D01*
X211610Y316035D01*
D02*
G37*
G36*
X205799D02*
X200988D01*
X201106Y315144D01*
X201643Y313847D01*
X202497Y312734D01*
X203611Y311879D01*
X204908Y311342D01*
X205799Y311225D01*
Y316035D01*
D02*
G37*
G36*
Y321846D02*
X204908Y321729D01*
X203611Y321192D01*
X202497Y320337D01*
X201643Y319224D01*
X201106Y317927D01*
X200988Y317035D01*
X205799D01*
Y321846D01*
D02*
G37*
G36*
X149685Y328444D02*
X148641Y328307D01*
X147668Y327904D01*
X146832Y327262D01*
X146191Y326427D01*
X145788Y325454D01*
X145650Y324410D01*
X145788Y323365D01*
X146191Y322392D01*
X146832Y321557D01*
X147668Y320916D01*
X148641Y320512D01*
X149685Y320375D01*
X150729Y320512D01*
X151702Y320916D01*
X152538Y321557D01*
X153179Y322392D01*
X153582Y323365D01*
X153719Y324410D01*
X153582Y325454D01*
X153179Y326427D01*
X152538Y327262D01*
X151702Y327904D01*
X150729Y328307D01*
X149685Y328444D01*
D02*
G37*
G36*
X206799Y321846D02*
Y317035D01*
X211610D01*
X211493Y317927D01*
X210956Y319224D01*
X210101Y320337D01*
X208988Y321192D01*
X207691Y321729D01*
X206799Y321846D01*
D02*
G37*
G36*
X175276Y359106D02*
X174101Y358951D01*
X173006Y358498D01*
X172066Y357776D01*
X171345Y356836D01*
X170891Y355742D01*
X170737Y354567D01*
X170891Y353392D01*
X171345Y352297D01*
X172066Y351358D01*
X173006Y350636D01*
X174101Y350183D01*
X175276Y350028D01*
X176450Y350183D01*
X177545Y350636D01*
X178485Y351358D01*
X179206Y352297D01*
X179660Y353392D01*
X179814Y354567D01*
X179660Y355742D01*
X179206Y356836D01*
X178485Y357776D01*
X177545Y358498D01*
X176450Y358951D01*
X175276Y359106D01*
D02*
G37*
G36*
X260724Y346551D02*
X255224D01*
Y341051D01*
X260724D01*
Y346551D01*
D02*
G37*
G36*
X114776Y354067D02*
X110803D01*
X110891Y353392D01*
X111345Y352297D01*
X112066Y351358D01*
X113006Y350636D01*
X114101Y350183D01*
X114776Y350094D01*
Y354067D01*
D02*
G37*
G36*
X198811Y355799D02*
X196539D01*
Y352248D01*
X198811D01*
Y355799D01*
D02*
G37*
G36*
X119749Y354067D02*
X115776D01*
Y350094D01*
X116450Y350183D01*
X117545Y350636D01*
X118485Y351358D01*
X119206Y352297D01*
X119660Y353392D01*
X119749Y354067D01*
D02*
G37*
G36*
X254224Y346551D02*
X248724D01*
Y341051D01*
X254224D01*
Y346551D01*
D02*
G37*
G36*
Y340051D02*
X248724D01*
Y334551D01*
X254224D01*
Y340051D01*
D02*
G37*
G36*
X274724Y346580D02*
X273548Y346464D01*
X272417Y346121D01*
X271375Y345564D01*
X270461Y344814D01*
X269711Y343901D01*
X269154Y342858D01*
X268811Y341727D01*
X268695Y340551D01*
X268811Y339375D01*
X268928Y338989D01*
X263642Y333703D01*
X240472D01*
X239698Y333601D01*
X239486Y333513D01*
X238975Y333302D01*
X238355Y332826D01*
X227309Y321779D01*
X226299Y321912D01*
X224908Y321729D01*
X223611Y321192D01*
X222497Y320337D01*
X221643Y319224D01*
X221106Y317927D01*
X220922Y316535D01*
X221106Y315144D01*
X221643Y313847D01*
X222497Y312734D01*
X223611Y311879D01*
X224908Y311342D01*
X226299Y311159D01*
X227691Y311342D01*
X228988Y311879D01*
X230101Y312734D01*
X230956Y313847D01*
X231493Y315144D01*
X231676Y316535D01*
X231543Y317545D01*
X241713Y327714D01*
X264882D01*
X265657Y327817D01*
X265868Y327904D01*
X266379Y328116D01*
X266999Y328591D01*
X273163Y334755D01*
X273548Y334638D01*
X274724Y334522D01*
X275901Y334638D01*
X277032Y334981D01*
X278074Y335538D01*
X278988Y336288D01*
X279737Y337202D01*
X280294Y338244D01*
X280638Y339375D01*
X280753Y340551D01*
X280638Y341727D01*
X280294Y342858D01*
X279737Y343901D01*
X278988Y344814D01*
X278074Y345564D01*
X277032Y346121D01*
X275901Y346464D01*
X274724Y346580D01*
D02*
G37*
G36*
X260724Y340051D02*
X255224D01*
Y334551D01*
X260724D01*
Y340051D01*
D02*
G37*
G36*
X179776Y349067D02*
X170776D01*
Y340067D01*
X179776D01*
Y349067D01*
D02*
G37*
G36*
X115276Y349106D02*
X114101Y348951D01*
X113006Y348498D01*
X112066Y347776D01*
X111345Y346836D01*
X110891Y345742D01*
X110737Y344567D01*
X110891Y343392D01*
X111345Y342298D01*
X112066Y341357D01*
X113006Y340636D01*
X114101Y340183D01*
X115276Y340028D01*
X116450Y340183D01*
X117545Y340636D01*
X118485Y341357D01*
X119206Y342298D01*
X119660Y343392D01*
X119814Y344567D01*
X119660Y345742D01*
X119206Y346836D01*
X118485Y347776D01*
X117545Y348498D01*
X116450Y348951D01*
X115276Y349106D01*
D02*
G37*
G36*
X202551Y385075D02*
X200476D01*
Y383591D01*
X202551D01*
Y385075D01*
D02*
G37*
G36*
X115276Y449106D02*
X114101Y448951D01*
X113006Y448498D01*
X112066Y447776D01*
X111345Y446836D01*
X110891Y445742D01*
X110737Y444567D01*
X110891Y443392D01*
X111345Y442298D01*
X112066Y441358D01*
X113006Y440636D01*
X114101Y440183D01*
X115276Y440028D01*
X116450Y440183D01*
X117545Y440636D01*
X118485Y441358D01*
X119206Y442298D01*
X119660Y443392D01*
X119814Y444567D01*
X119660Y445742D01*
X119206Y446836D01*
X118485Y447776D01*
X117545Y448498D01*
X116450Y448951D01*
X115276Y449106D01*
D02*
G37*
G36*
X175276Y439106D02*
X174101Y438951D01*
X173006Y438498D01*
X172066Y437776D01*
X171345Y436836D01*
X170891Y435742D01*
X170737Y434567D01*
X170891Y433392D01*
X171345Y432298D01*
X172066Y431357D01*
X173006Y430636D01*
X174101Y430183D01*
X175276Y430028D01*
X176450Y430183D01*
X177545Y430636D01*
X178485Y431357D01*
X179206Y432298D01*
X179660Y433392D01*
X179814Y434567D01*
X179660Y435742D01*
X179206Y436836D01*
X178485Y437776D01*
X177545Y438498D01*
X176450Y438951D01*
X175276Y439106D01*
D02*
G37*
G36*
Y449106D02*
X174101Y448951D01*
X173006Y448498D01*
X172066Y447776D01*
X171345Y446836D01*
X170891Y445742D01*
X170737Y444567D01*
X170891Y443392D01*
X171345Y442298D01*
X172066Y441358D01*
X173006Y440636D01*
X174101Y440183D01*
X175276Y440028D01*
X176450Y440183D01*
X177545Y440636D01*
X178485Y441358D01*
X179206Y442298D01*
X179660Y443392D01*
X179814Y444567D01*
X179660Y445742D01*
X179206Y446836D01*
X178485Y447776D01*
X177545Y448498D01*
X176450Y448951D01*
X175276Y449106D01*
D02*
G37*
G36*
X186114Y457965D02*
X183616D01*
Y456988D01*
X183732Y456406D01*
X184062Y455912D01*
X184556Y455583D01*
X185138Y455467D01*
X186114D01*
Y457965D01*
D02*
G37*
G36*
X115276Y459106D02*
X114101Y458951D01*
X113006Y458498D01*
X112066Y457776D01*
X111345Y456836D01*
X110891Y455742D01*
X110737Y454567D01*
X110891Y453392D01*
X111345Y452297D01*
X112066Y451358D01*
X113006Y450636D01*
X114101Y450183D01*
X115276Y450028D01*
X116450Y450183D01*
X117545Y450636D01*
X118485Y451358D01*
X119206Y452297D01*
X119660Y453392D01*
X119814Y454567D01*
X119660Y455742D01*
X119206Y456836D01*
X118485Y457776D01*
X117545Y458498D01*
X116450Y458951D01*
X115276Y459106D01*
D02*
G37*
G36*
Y439106D02*
X114101Y438951D01*
X113006Y438498D01*
X112066Y437776D01*
X111345Y436836D01*
X110891Y435742D01*
X110737Y434567D01*
X110891Y433392D01*
X111345Y432298D01*
X112066Y431357D01*
X113006Y430636D01*
X114101Y430183D01*
X115276Y430028D01*
X116450Y430183D01*
X117545Y430636D01*
X118485Y431357D01*
X119206Y432298D01*
X119660Y433392D01*
X119814Y434567D01*
X119660Y435742D01*
X119206Y436836D01*
X118485Y437776D01*
X117545Y438498D01*
X116450Y438951D01*
X115276Y439106D01*
D02*
G37*
G36*
X203551Y419375D02*
Y416411D01*
X206516D01*
X206461Y416824D01*
X206108Y417676D01*
X205547Y418407D01*
X204816Y418968D01*
X203965Y419321D01*
X203551Y419375D01*
D02*
G37*
G36*
X202551D02*
X202137Y419321D01*
X201286Y418968D01*
X200555Y418407D01*
X199994Y417676D01*
X199641Y416824D01*
X199587Y416411D01*
X202551D01*
Y419375D01*
D02*
G37*
G36*
X115276Y429106D02*
X114101Y428951D01*
X113006Y428498D01*
X112066Y427776D01*
X111345Y426836D01*
X110891Y425742D01*
X110737Y424567D01*
X110891Y423392D01*
X111345Y422297D01*
X112066Y421357D01*
X113006Y420636D01*
X114101Y420183D01*
X115276Y420028D01*
X116450Y420183D01*
X117545Y420636D01*
X118485Y421357D01*
X119206Y422297D01*
X119660Y423392D01*
X119814Y424567D01*
X119660Y425742D01*
X119206Y426836D01*
X118485Y427776D01*
X117545Y428498D01*
X116450Y428951D01*
X115276Y429106D01*
D02*
G37*
G36*
X249894Y431693D02*
X249040Y431609D01*
X247738Y431214D01*
X246539Y430573D01*
X245487Y429710D01*
X244624Y428658D01*
X243983Y427459D01*
X243588Y426157D01*
X243504Y425303D01*
X249894D01*
Y431693D01*
D02*
G37*
G36*
X175276Y429106D02*
X174101Y428951D01*
X173006Y428498D01*
X172066Y427776D01*
X171345Y426836D01*
X170891Y425742D01*
X170737Y424567D01*
X170891Y423392D01*
X171345Y422297D01*
X172066Y421357D01*
X173006Y420636D01*
X174101Y420183D01*
X175276Y420028D01*
X176450Y420183D01*
X177545Y420636D01*
X178485Y421357D01*
X179206Y422297D01*
X179660Y423392D01*
X179814Y424567D01*
X179660Y425742D01*
X179206Y426836D01*
X178485Y427776D01*
X177545Y428498D01*
X176450Y428951D01*
X175276Y429106D01*
D02*
G37*
G36*
X189612Y457965D02*
X187114D01*
Y455467D01*
X188091D01*
X188673Y455583D01*
X189166Y455912D01*
X189496Y456406D01*
X189612Y456988D01*
Y457965D01*
D02*
G37*
G36*
X175276Y479106D02*
X174101Y478951D01*
X173006Y478498D01*
X172066Y477776D01*
X171345Y476836D01*
X170891Y475742D01*
X170737Y474567D01*
X170891Y473392D01*
X171345Y472297D01*
X172066Y471357D01*
X173006Y470636D01*
X174101Y470183D01*
X175276Y470028D01*
X176450Y470183D01*
X177545Y470636D01*
X178485Y471357D01*
X179206Y472297D01*
X179660Y473392D01*
X179814Y474567D01*
X179660Y475742D01*
X179206Y476836D01*
X178485Y477776D01*
X177545Y478498D01*
X176450Y478951D01*
X175276Y479106D01*
D02*
G37*
G36*
X115276D02*
X114101Y478951D01*
X113006Y478498D01*
X112066Y477776D01*
X111345Y476836D01*
X110891Y475742D01*
X110737Y474567D01*
X110891Y473392D01*
X111345Y472297D01*
X112066Y471357D01*
X113006Y470636D01*
X114101Y470183D01*
X115276Y470028D01*
X116450Y470183D01*
X117545Y470636D01*
X118485Y471357D01*
X119206Y472297D01*
X119660Y473392D01*
X119814Y474567D01*
X119660Y475742D01*
X119206Y476836D01*
X118485Y477776D01*
X117545Y478498D01*
X116450Y478951D01*
X115276Y479106D01*
D02*
G37*
G36*
X206299Y489818D02*
X204752Y489665D01*
X203265Y489214D01*
X201895Y488482D01*
X200693Y487496D01*
X199707Y486294D01*
X198975Y484924D01*
X198524Y483436D01*
X198371Y481890D01*
X198524Y480343D01*
X198975Y478856D01*
X199707Y477485D01*
X200693Y476284D01*
X201895Y475298D01*
X203265Y474565D01*
X204752Y474114D01*
X206299Y473962D01*
X207846Y474114D01*
X209333Y474565D01*
X210704Y475298D01*
X211905Y476284D01*
X212891Y477485D01*
X213624Y478856D01*
X214075Y480343D01*
X214227Y481890D01*
X214075Y483436D01*
X213624Y484924D01*
X212891Y486294D01*
X211905Y487496D01*
X210704Y488482D01*
X209333Y489214D01*
X207846Y489665D01*
X206299Y489818D01*
D02*
G37*
G36*
X175276Y489106D02*
X174101Y488951D01*
X173006Y488498D01*
X172066Y487776D01*
X171345Y486836D01*
X170891Y485742D01*
X170737Y484567D01*
X170891Y483392D01*
X171345Y482298D01*
X172066Y481357D01*
X173006Y480636D01*
X174101Y480183D01*
X175276Y480028D01*
X176450Y480183D01*
X177545Y480636D01*
X178485Y481357D01*
X179206Y482298D01*
X179660Y483392D01*
X179814Y484567D01*
X179660Y485742D01*
X179206Y486836D01*
X178485Y487776D01*
X177545Y488498D01*
X176450Y488951D01*
X175276Y489106D01*
D02*
G37*
G36*
X115276D02*
X114101Y488951D01*
X113006Y488498D01*
X112066Y487776D01*
X111345Y486836D01*
X110891Y485742D01*
X110737Y484567D01*
X110891Y483392D01*
X111345Y482298D01*
X112066Y481357D01*
X113006Y480636D01*
X114101Y480183D01*
X115276Y480028D01*
X116450Y480183D01*
X117545Y480636D01*
X118485Y481357D01*
X119206Y482298D01*
X119660Y483392D01*
X119814Y484567D01*
X119660Y485742D01*
X119206Y486836D01*
X118485Y487776D01*
X117545Y488498D01*
X116450Y488951D01*
X115276Y489106D01*
D02*
G37*
G36*
X221654Y476817D02*
X218701D01*
X218119Y476701D01*
X217625Y476371D01*
X217295Y475878D01*
X217179Y475295D01*
Y473799D01*
X216960Y473756D01*
X216464Y473424D01*
X212873Y469833D01*
X190659D01*
X189997Y470495D01*
X189501Y470826D01*
X188916Y470943D01*
X184313D01*
X183727Y470826D01*
X183231Y470495D01*
X182573Y469837D01*
X179016D01*
X178430Y469720D01*
X177934Y469389D01*
X177190Y468645D01*
X176450Y468951D01*
X175276Y469106D01*
X174101Y468951D01*
X173006Y468498D01*
X172066Y467776D01*
X171345Y466836D01*
X170891Y465742D01*
X170737Y464567D01*
X170891Y463392D01*
X171345Y462297D01*
X172066Y461357D01*
X173006Y460636D01*
X174101Y460183D01*
X175276Y460028D01*
X176450Y460183D01*
X177545Y460636D01*
X178485Y461357D01*
X179206Y462297D01*
X179660Y463392D01*
X179814Y464567D01*
X179660Y465742D01*
X179394Y466384D01*
X179710Y466778D01*
X183206D01*
X183230Y466782D01*
X183616Y466465D01*
Y465110D01*
X177163Y458656D01*
X176450Y458951D01*
X175276Y459106D01*
X174101Y458951D01*
X173006Y458498D01*
X172066Y457776D01*
X171345Y456836D01*
X170891Y455742D01*
X170737Y454567D01*
X170891Y453392D01*
X171345Y452297D01*
X172066Y451358D01*
X173006Y450636D01*
X174101Y450183D01*
X175276Y450028D01*
X176450Y450183D01*
X177545Y450636D01*
X178485Y451358D01*
X179206Y452297D01*
X179660Y453392D01*
X179814Y454567D01*
X179660Y455742D01*
X179342Y456509D01*
X183189Y460357D01*
X183650Y460111D01*
X183616Y459941D01*
Y458965D01*
X186114D01*
Y461462D01*
X185138D01*
X184968Y461428D01*
X184721Y461889D01*
X185779Y462947D01*
X188091D01*
X188673Y463063D01*
X189166Y463393D01*
X189496Y463886D01*
X189612Y464468D01*
Y464774D01*
X200427D01*
X200568Y464274D01*
X199535Y463641D01*
X198162Y462468D01*
X196989Y461095D01*
X196046Y459555D01*
X195354Y457887D01*
X194933Y456131D01*
X194791Y454331D01*
X194933Y452530D01*
X195354Y450775D01*
X196046Y449106D01*
X196989Y447567D01*
X198162Y446193D01*
X199535Y445021D01*
X201075Y444077D01*
X202743Y443386D01*
X204499Y442965D01*
X206299Y442823D01*
X208099Y442965D01*
X209855Y443386D01*
X211524Y444077D01*
X213063Y445021D01*
X214437Y446193D01*
X215609Y447567D01*
X216553Y449106D01*
X217244Y450775D01*
X217666Y452530D01*
X217807Y454331D01*
X217666Y456131D01*
X217244Y457887D01*
X216553Y459555D01*
X215609Y461095D01*
X214437Y462468D01*
X213063Y463641D01*
X212031Y464274D01*
X212172Y464774D01*
X214335D01*
X214920Y464890D01*
X215416Y465222D01*
X216718Y466523D01*
X217179Y466332D01*
Y464862D01*
X217295Y464280D01*
X217625Y463787D01*
X218119Y463457D01*
X218701Y463341D01*
X219677D01*
Y466339D01*
X220177D01*
Y466839D01*
X223175D01*
Y467047D01*
X223637Y467238D01*
X237051Y453824D01*
X236859Y453362D01*
X226953D01*
Y439551D01*
X240764D01*
Y442640D01*
X241226Y442832D01*
X246441Y437617D01*
X246536Y437135D01*
X246868Y436639D01*
X251357Y432150D01*
X251130Y431670D01*
X250894Y431693D01*
Y425303D01*
X257283D01*
X257260Y425540D01*
X257740Y425767D01*
X259785Y423722D01*
X260119Y423499D01*
X260123Y423449D01*
X260518Y422148D01*
X261160Y420948D01*
X262023Y419897D01*
X263074Y419034D01*
X264168Y418449D01*
X264066Y417949D01*
X253257D01*
X253154Y418449D01*
X254249Y419034D01*
X255300Y419897D01*
X256163Y420948D01*
X256804Y422148D01*
X257199Y423449D01*
X257283Y424303D01*
X243504D01*
X243588Y423449D01*
X243983Y422148D01*
X244624Y420948D01*
X245487Y419897D01*
X246539Y419034D01*
X247633Y418449D01*
X247530Y417949D01*
X236722D01*
X236619Y418449D01*
X237713Y419034D01*
X238765Y419897D01*
X239628Y420948D01*
X240269Y422148D01*
X240664Y423449D01*
X240797Y424803D01*
X240664Y426157D01*
X240269Y427459D01*
X239628Y428658D01*
X238765Y429710D01*
X237713Y430573D01*
X236514Y431214D01*
X235212Y431609D01*
X233858Y431742D01*
X232505Y431609D01*
X231203Y431214D01*
X230003Y430573D01*
X228952Y429710D01*
X228089Y428658D01*
X227448Y427459D01*
X227053Y426157D01*
X226919Y424803D01*
X227053Y423449D01*
X227448Y422148D01*
X228089Y420948D01*
X228952Y419897D01*
X230003Y419034D01*
X231098Y418449D01*
X230995Y417949D01*
X208268D01*
X207877Y417871D01*
X207547Y417650D01*
X207326Y417319D01*
X207248Y416929D01*
Y409039D01*
X207173Y408989D01*
X206952Y408658D01*
X206874Y408268D01*
Y390158D01*
X206952Y389767D01*
X207173Y389437D01*
X207248Y389386D01*
Y385417D01*
X207173Y385367D01*
X206952Y385036D01*
X206874Y384646D01*
Y366535D01*
X206952Y366145D01*
X207173Y365814D01*
X207248Y365764D01*
Y357874D01*
X207326Y357484D01*
X207547Y357153D01*
X207877Y356932D01*
X208268Y356854D01*
X294882D01*
X295272Y356932D01*
X295603Y357153D01*
X295824Y357484D01*
X295901Y357874D01*
Y416929D01*
X295824Y417319D01*
X295603Y417650D01*
X295321Y417839D01*
X295333Y417929D01*
Y437583D01*
X295231Y438358D01*
X295143Y438569D01*
X294932Y439080D01*
X294456Y439700D01*
X289987Y444169D01*
X290270Y445103D01*
X290404Y446457D01*
X290270Y447810D01*
X289875Y449112D01*
X289234Y450312D01*
X288371Y451363D01*
X287320Y452226D01*
X286120Y452867D01*
X284818Y453262D01*
X283465Y453396D01*
X282111Y453262D01*
X280809Y452867D01*
X279609Y452226D01*
X278558Y451363D01*
X277695Y450312D01*
X277235Y449451D01*
X273159D01*
X272699Y450312D01*
X271836Y451363D01*
X270784Y452226D01*
X269584Y452867D01*
X268283Y453262D01*
X266929Y453396D01*
X265575Y453262D01*
X264274Y452867D01*
X263074Y452226D01*
X262023Y451363D01*
X261160Y450312D01*
X260715Y449479D01*
X260099Y449388D01*
X250802Y458684D01*
X250306Y459015D01*
X249721Y459132D01*
X239094D01*
X224802Y473424D01*
X224306Y473756D01*
X223720Y473872D01*
X223175D01*
Y475295D01*
X223059Y475878D01*
X222729Y476371D01*
X222236Y476701D01*
X221654Y476817D01*
D02*
G37*
G36*
X115276Y469106D02*
X114101Y468951D01*
X113006Y468498D01*
X112066Y467776D01*
X111345Y466836D01*
X110891Y465742D01*
X110737Y464567D01*
X110891Y463392D01*
X111345Y462297D01*
X112066Y461357D01*
X113006Y460636D01*
X114101Y460183D01*
X115276Y460028D01*
X116450Y460183D01*
X117545Y460636D01*
X118485Y461357D01*
X119206Y462297D01*
X119660Y463392D01*
X119814Y464567D01*
X119660Y465742D01*
X119206Y466836D01*
X118485Y467776D01*
X117545Y468498D01*
X116450Y468951D01*
X115276Y469106D01*
D02*
G37*
G36*
X188091Y461462D02*
X187114D01*
Y458965D01*
X189612D01*
Y459941D01*
X189496Y460523D01*
X189166Y461017D01*
X188673Y461346D01*
X188091Y461462D01*
D02*
G37*
G36*
X223175Y465839D02*
X220677D01*
Y463341D01*
X221654D01*
X222236Y463457D01*
X222729Y463787D01*
X223059Y464280D01*
X223175Y464862D01*
Y465839D01*
D02*
G37*
G36*
X283465Y482136D02*
X282111Y482002D01*
X280809Y481608D01*
X279609Y480966D01*
X278558Y480103D01*
X277695Y479052D01*
X277054Y477852D01*
X276659Y476551D01*
X276526Y475197D01*
X276659Y473843D01*
X277054Y472541D01*
X277695Y471342D01*
X278558Y470290D01*
X279609Y469427D01*
X280809Y468786D01*
X282111Y468391D01*
X283465Y468258D01*
X284818Y468391D01*
X286120Y468786D01*
X287320Y469427D01*
X288371Y470290D01*
X289234Y471342D01*
X289875Y472541D01*
X290270Y473843D01*
X290404Y475197D01*
X290270Y476551D01*
X289875Y477852D01*
X289234Y479052D01*
X288371Y480103D01*
X287320Y480966D01*
X286120Y481608D01*
X284818Y482002D01*
X283465Y482136D01*
D02*
G37*
G36*
X233858D02*
X232505Y482002D01*
X231203Y481608D01*
X230003Y480966D01*
X228952Y480103D01*
X228089Y479052D01*
X227448Y477852D01*
X227053Y476551D01*
X226919Y475197D01*
X227053Y473843D01*
X227448Y472541D01*
X228089Y471342D01*
X228952Y470290D01*
X230003Y469427D01*
X231203Y468786D01*
X232505Y468391D01*
X233858Y468258D01*
X235212Y468391D01*
X236514Y468786D01*
X237713Y469427D01*
X238765Y470290D01*
X239628Y471342D01*
X240269Y472541D01*
X240664Y473843D01*
X240797Y475197D01*
X240664Y476551D01*
X240269Y477852D01*
X239628Y479052D01*
X238765Y480103D01*
X237713Y480966D01*
X236514Y481608D01*
X235212Y482002D01*
X233858Y482136D01*
D02*
G37*
G36*
X206516Y415411D02*
X203551D01*
Y412446D01*
X203965Y412501D01*
X204816Y412853D01*
X205547Y413414D01*
X206108Y414146D01*
X206461Y414997D01*
X206516Y415411D01*
D02*
G37*
G36*
X205626Y398697D02*
X203551D01*
Y397213D01*
X205626D01*
Y398697D01*
D02*
G37*
G36*
X202551D02*
X200476D01*
Y397213D01*
X202551D01*
Y398697D01*
D02*
G37*
G36*
Y401213D02*
X200476D01*
Y399728D01*
X202551D01*
Y401213D01*
D02*
G37*
G36*
X115276Y409106D02*
X114101Y408951D01*
X113006Y408498D01*
X112066Y407776D01*
X111345Y406836D01*
X110891Y405742D01*
X110737Y404567D01*
X110891Y403392D01*
X111345Y402297D01*
X112066Y401358D01*
X113006Y400636D01*
X114101Y400183D01*
X115276Y400028D01*
X116450Y400183D01*
X117545Y400636D01*
X118485Y401358D01*
X119206Y402297D01*
X119660Y403392D01*
X119814Y404567D01*
X119660Y405742D01*
X119206Y406836D01*
X118485Y407776D01*
X117545Y408498D01*
X116450Y408951D01*
X115276Y409106D01*
D02*
G37*
G36*
X205626Y401213D02*
X203551D01*
Y399728D01*
X205626D01*
Y401213D01*
D02*
G37*
G36*
Y396213D02*
X203551D01*
Y394728D01*
X205626D01*
Y396213D01*
D02*
G37*
G36*
X202083Y394209D02*
X196539D01*
Y386106D01*
X202083D01*
Y388652D01*
X202117Y388659D01*
X202643Y389011D01*
X203360Y389728D01*
X205626D01*
Y393697D01*
X202083D01*
Y394209D01*
D02*
G37*
G36*
X205626Y385075D02*
X203551D01*
Y383591D01*
X205626D01*
Y385075D01*
D02*
G37*
G36*
X175276Y399106D02*
X174101Y398951D01*
X173006Y398498D01*
X172066Y397776D01*
X171345Y396836D01*
X170891Y395742D01*
X170737Y394567D01*
X170891Y393392D01*
X171345Y392298D01*
X172066Y391357D01*
X173006Y390636D01*
X174101Y390183D01*
X175276Y390028D01*
X175545Y390064D01*
X176108Y389500D01*
X175874Y389027D01*
X175276Y389106D01*
X174101Y388951D01*
X173006Y388498D01*
X172066Y387776D01*
X171345Y386836D01*
X170891Y385742D01*
X170737Y384567D01*
X170891Y383392D01*
X171345Y382297D01*
X172066Y381358D01*
X173006Y380636D01*
X174101Y380183D01*
X175276Y380028D01*
X176450Y380183D01*
X177545Y380636D01*
X178485Y381358D01*
X179206Y382297D01*
X179660Y383392D01*
X179814Y384567D01*
X179660Y385742D01*
X179256Y386716D01*
X179436Y387049D01*
X179575Y387178D01*
X179685Y387163D01*
X185884D01*
Y366142D01*
Y356299D01*
X185986Y355524D01*
X186106Y355234D01*
Y352248D01*
X191650D01*
Y355234D01*
X191770Y355524D01*
X191872Y356299D01*
Y366142D01*
Y390158D01*
X191770Y390932D01*
X191650Y391223D01*
Y394209D01*
X186106D01*
Y393152D01*
X180925D01*
X179779Y394298D01*
X179814Y394567D01*
X179660Y395742D01*
X179206Y396836D01*
X178485Y397776D01*
X177545Y398498D01*
X176450Y398951D01*
X175276Y399106D01*
D02*
G37*
G36*
X202551Y396213D02*
X200476D01*
Y394728D01*
X202551D01*
Y396213D01*
D02*
G37*
G36*
X115276Y399106D02*
X114101Y398951D01*
X113006Y398498D01*
X112066Y397776D01*
X111345Y396836D01*
X110891Y395742D01*
X110737Y394567D01*
X110891Y393392D01*
X111345Y392298D01*
X112066Y391357D01*
X113006Y390636D01*
X114101Y390183D01*
X115276Y390028D01*
X116450Y390183D01*
X117545Y390636D01*
X118485Y391357D01*
X119206Y392298D01*
X119660Y393392D01*
X119814Y394567D01*
X119660Y395742D01*
X119206Y396836D01*
X118485Y397776D01*
X117545Y398498D01*
X116450Y398951D01*
X115276Y399106D01*
D02*
G37*
G36*
X205626Y408697D02*
X203551D01*
Y407213D01*
X205626D01*
Y408697D01*
D02*
G37*
G36*
X202551D02*
X200476D01*
Y407213D01*
X202551D01*
Y408697D01*
D02*
G37*
G36*
X115276Y419106D02*
X114101Y418951D01*
X113006Y418498D01*
X112066Y417776D01*
X111345Y416836D01*
X110891Y415742D01*
X110737Y414567D01*
X110891Y413392D01*
X111345Y412297D01*
X112066Y411357D01*
X113006Y410636D01*
X114101Y410183D01*
X115276Y410028D01*
X116450Y410183D01*
X117545Y410636D01*
X118485Y411357D01*
X119206Y412297D01*
X119660Y413392D01*
X119814Y414567D01*
X119660Y415742D01*
X119206Y416836D01*
X118485Y417776D01*
X117545Y418498D01*
X116450Y418951D01*
X115276Y419106D01*
D02*
G37*
G36*
X202551Y415411D02*
X199587D01*
X199641Y414997D01*
X199994Y414146D01*
X200555Y413414D01*
X201286Y412853D01*
X202137Y412501D01*
X202551Y412446D01*
Y415411D01*
D02*
G37*
G36*
X175276Y419106D02*
X174101Y418951D01*
X173006Y418498D01*
X172066Y417776D01*
X171345Y416836D01*
X170891Y415742D01*
X170737Y414567D01*
X170891Y413392D01*
X171345Y412297D01*
X172066Y411357D01*
X173006Y410636D01*
X174101Y410183D01*
X175276Y410028D01*
X176450Y410183D01*
X177545Y410636D01*
X178485Y411357D01*
X179206Y412297D01*
X179660Y413392D01*
X179814Y414567D01*
X179660Y415742D01*
X179206Y416836D01*
X178485Y417776D01*
X177545Y418498D01*
X176450Y418951D01*
X175276Y419106D01*
D02*
G37*
G36*
X205626Y406213D02*
X203551D01*
Y404728D01*
X205626D01*
Y406213D01*
D02*
G37*
G36*
Y403697D02*
X203551D01*
Y402213D01*
X205626D01*
Y403697D01*
D02*
G37*
G36*
X202551D02*
X200476D01*
Y402213D01*
X202551D01*
Y403697D01*
D02*
G37*
G36*
X175276Y409106D02*
X174101Y408951D01*
X173006Y408498D01*
X172066Y407776D01*
X171345Y406836D01*
X170891Y405742D01*
X170737Y404567D01*
X170891Y403392D01*
X171345Y402297D01*
X172066Y401358D01*
X173006Y400636D01*
X174101Y400183D01*
X175276Y400028D01*
X176450Y400183D01*
X177545Y400636D01*
X178485Y401358D01*
X179206Y402297D01*
X179660Y403392D01*
X179814Y404567D01*
X179660Y405742D01*
X179206Y406836D01*
X178485Y407776D01*
X177545Y408498D01*
X176450Y408951D01*
X175276Y409106D01*
D02*
G37*
G36*
X202551Y406213D02*
X200476D01*
Y404728D01*
X202551D01*
Y406213D01*
D02*
G37*
%LPD*%
G36*
X224114Y366535D02*
X207894D01*
Y384646D01*
X224114D01*
Y366535D01*
D02*
G37*
G36*
Y390158D02*
X207894D01*
Y408268D01*
X224114D01*
Y390158D01*
D02*
G37*
D10*
X199311D02*
D03*
X188878D02*
D03*
X199311Y366142D02*
D03*
X188878D02*
D03*
X199311Y356299D02*
D03*
X188878D02*
D03*
D11*
X220177Y466339D02*
D03*
Y473819D02*
D03*
X186614Y458465D02*
D03*
Y465945D02*
D03*
D12*
X225295Y406713D02*
D03*
Y401713D02*
D03*
Y396713D02*
D03*
Y391713D02*
D03*
X203051D02*
D03*
Y396713D02*
D03*
Y401713D02*
D03*
Y406713D02*
D03*
X225295Y383090D02*
D03*
Y378091D02*
D03*
Y373091D02*
D03*
Y368091D02*
D03*
X203051D02*
D03*
Y373091D02*
D03*
Y378091D02*
D03*
Y383090D02*
D03*
D13*
X175276Y371035D02*
X177955D01*
X194488Y340158D02*
X215453D01*
X181744Y352902D02*
X194488Y340158D01*
X181744Y352902D02*
Y367246D01*
X177955Y371035D02*
X181744Y367246D01*
X175276Y371035D02*
Y374567D01*
X194571Y361039D02*
X199311Y356299D01*
X194571Y361039D02*
Y370423D01*
X196310Y372161D01*
Y384138D01*
X203051Y378091D02*
Y383090D01*
X175276Y394567D02*
X179685Y390158D01*
X188878D01*
X254331Y340158D02*
X254724Y340551D01*
X206299Y316535D02*
X209449Y319685D01*
Y329921D01*
X226299Y316535D02*
X240472Y330709D01*
X264882D01*
X274724Y340551D01*
X209449Y329921D02*
X215453Y335925D01*
Y340158D01*
X254331D01*
X199311Y356299D02*
X215453Y340158D01*
X188878Y356299D02*
Y366142D01*
Y390158D01*
X202312Y396177D02*
X202414Y396075D01*
X202414D02*
X203051Y396713D01*
X202414Y396075D02*
X202414D01*
X196310Y396177D02*
X202312D01*
X194095Y393962D02*
X196310Y396177D01*
X194095Y386353D02*
Y393962D01*
Y386353D02*
X196310Y384138D01*
X202004D01*
X203051Y383090D01*
Y373091D02*
Y378091D01*
Y406713D02*
Y415911D01*
Y401713D02*
Y406713D01*
Y396713D02*
Y401713D01*
X266929Y446457D02*
X283465D01*
X225295Y406713D02*
X281122D01*
X292339Y417929D01*
Y437583D01*
X283465Y446457D02*
X292339Y437583D01*
D14*
X201102Y366142D02*
X203051Y368091D01*
X199311Y366142D02*
X201102D01*
X201496Y390158D02*
X203051Y391713D01*
X199311Y390158D02*
X201496D01*
D15*
X137559Y316535D02*
X186299D01*
X129685Y324410D02*
X137559Y316535D01*
X129685Y324410D02*
X131496Y326220D01*
Y358347D01*
X115276Y374567D02*
X131496Y358347D01*
D16*
X186614Y432348D02*
X203051Y415911D01*
X186614Y432348D02*
Y458465D01*
X203051Y418012D02*
X218272Y433232D01*
Y463843D01*
X238461Y457602D02*
X249721D01*
X175276Y454567D02*
Y454606D01*
X239176Y453862D02*
X240385D01*
X241264Y452984D01*
X203051Y415911D02*
Y418012D01*
X278110Y424803D02*
X283465D01*
X249721Y457602D02*
X259524Y447800D01*
X241264Y444957D02*
Y452984D01*
Y444957D02*
X247949Y438271D01*
Y437720D02*
Y438271D01*
X259524Y443389D02*
Y447800D01*
Y443389D02*
X278110Y424803D01*
X260867D02*
X266929D01*
X247949Y437720D02*
X260867Y424803D01*
X225295Y401713D02*
Y406713D01*
Y396713D02*
Y401713D01*
Y383090D02*
Y391713D01*
Y396713D01*
Y378091D02*
Y383090D01*
Y373091D02*
Y378091D01*
Y368091D02*
Y373091D01*
X186614Y465945D02*
X186972Y466303D01*
X175276Y454606D02*
X186614Y465945D01*
X175276Y464567D02*
X179016Y468307D01*
X183206D01*
X184313Y469413D01*
X188916D01*
X190022Y468307D01*
X190026D01*
X218272Y463843D02*
X219291Y464862D01*
X223231Y469807D02*
X239176Y453862D01*
X186972Y466303D02*
X214335D01*
X217839Y469807D01*
X223231D01*
X223720Y472343D02*
X238461Y457602D01*
X190026Y468303D02*
X213506D01*
X217546Y472343D01*
X223720D01*
D17*
X251575Y387402D02*
D03*
D18*
X274724Y340551D02*
D03*
D19*
X254724D02*
D03*
D20*
X226299Y316535D02*
D03*
X206299D02*
D03*
X186299D02*
D03*
D21*
X206299Y454331D02*
D03*
D22*
X159685Y324410D02*
D03*
X149685D02*
D03*
X139685D02*
D03*
X129685D02*
D03*
X119685D02*
D03*
X169685D02*
D03*
X283465Y475197D02*
D03*
X233858D02*
D03*
D23*
X233858Y446457D02*
D03*
D24*
X283465D02*
D03*
X266929Y424803D02*
D03*
X283465D02*
D03*
X233858D02*
D03*
X250394D02*
D03*
Y446457D02*
D03*
X266929D02*
D03*
D25*
X175276Y344567D02*
D03*
D26*
Y354567D02*
D03*
Y364567D02*
D03*
X115276Y344567D02*
D03*
X175276Y374567D02*
D03*
Y384567D02*
D03*
Y394567D02*
D03*
Y404567D02*
D03*
Y414567D02*
D03*
Y424567D02*
D03*
Y434567D02*
D03*
Y444567D02*
D03*
Y454567D02*
D03*
Y464567D02*
D03*
Y474567D02*
D03*
Y484567D02*
D03*
X115276D02*
D03*
Y474567D02*
D03*
Y464567D02*
D03*
Y454567D02*
D03*
Y444567D02*
D03*
Y434567D02*
D03*
Y424567D02*
D03*
Y414567D02*
D03*
Y404567D02*
D03*
Y394567D02*
D03*
Y384567D02*
D03*
Y374567D02*
D03*
Y364567D02*
D03*
Y354567D02*
D03*
D27*
X203051Y415911D02*
D03*
M02*
